^C:\USERS\JUANM\VSPROJECTS\PRUEBA\PRUEBA\STDAFX.CPP
C:\USERS\JUANM\VSPROJECTS\PRUEBA\PRUEBA\DEBUG\PRUEBA.PCH
C:\USERS\JUANM\VSPROJECTS\PRUEBA\PRUEBA\DEBUG\VC141.PDB
C:\USERS\JUANM\VSPROJECTS\PRUEBA\PRUEBA\DEBUG\VC141.IDB
C:\USERS\JUANM\VSPROJECTS\PRUEBA\PRUEBA\DEBUG\STDAFX.OBJ
^C:\USERS\JUANM\VSPROJECTS\PRUEBA\PRUEBA\PRUEBA.CPP|C:\USERS\JUANM\VSPROJECTS\PRUEBA\PRUEBA\PRUEBADLG.CPP
C:\USERS\JUANM\VSPROJECTS\PRUEBA\PRUEBA\DEBUG\VC141.PDB
C:\USERS\JUANM\VSPROJECTS\PRUEBA\PRUEBA\DEBUG\VC141.IDB
C:\USERS\JUANM\VSPROJECTS\PRUEBA\PRUEBA\DEBUG\PRUEBA.OBJ
^C:\USERS\JUANM\VSPROJECTS\PRUEBA\PRUEBA\PRUEBA.CPP
C:\USERS\JUANM\VSPROJECTS\PRUEBA\PRUEBA\DEBUG\PRUEBA.OBJ
^C:\USERS\JUANM\VSPROJECTS\PRUEBA\PRUEBA\PRUEBADLG.CPP
C:\USERS\JUANM\VSPROJECTS\PRUEBA\PRUEBA\DEBUG\VC141.PDB
C:\USERS\JUANM\VSPROJECTS\PRUEBA\PRUEBA\DEBUG\VC141.IDB
C:\USERS\JUANM\VSPROJECTS\PRUEBA\PRUEBA\DEBUG\PRUEBADLG.OBJ
^C:\USERS\JUANM\VSPROJECTS\PRUEBA_V2\PRUEBA\STDAFX.CPP
C:\USERS\JUANM\VSPROJECTS\PRUEBA_V2\PRUEBA\DEBUG\PRUEBA.PCH
C:\USERS\JUANM\VSPROJECTS\PRUEBA_V2\PRUEBA\DEBUG\VC141.PDB
C:\USERS\JUANM\VSPROJECTS\PRUEBA_V2\PRUEBA\DEBUG\VC141.IDB
C:\USERS\JUANM\VSPROJECTS\PRUEBA_V2\PRUEBA\DEBUG\STDAFX.OBJ
^C:\USERS\JUANM\VSPROJECTS\PRUEBA_V2\PRUEBA\PRUEBA.CPP|C:\USERS\JUANM\VSPROJECTS\PRUEBA_V2\PRUEBA\PRUEBADLG.CPP
C:\USERS\JUANM\VSPROJECTS\PRUEBA_V2\PRUEBA\DEBUG\VC141.PDB
C:\USERS\JUANM\VSPROJECTS\PRUEBA_V2\PRUEBA\DEBUG\VC141.IDB
C:\USERS\JUANM\VSPROJECTS\PRUEBA_V2\PRUEBA\DEBUG\PRUEBADLG.OBJ
C:\USERS\JUANM\VSPROJECTS\PRUEBA_V2\PRUEBA\DEBUG\PRUEBA.OBJ
^C:\USERS\JUANM\VSPROJECTS\PRUEBA_V2\PRUEBA\PRUEBA.CPP
C:\USERS\JUANM\VSPROJECTS\PRUEBA_V2\PRUEBA\DEBUG\VC141.PDB
^C:\USERS\JUANM\VSPROJECTS\PRUEBA_V2\PRUEBA\PRUEBADLG.CPP
C:\USERS\JUANM\VSPROJECTS\PRUEBA_V2\PRUEBA\DEBUG\VC141.PDB
C:\USERS\JUANM\VSPROJECTS\PRUEBA_V2\PRUEBA\DEBUG\VC141.IDB
C:\USERS\JUANM\VSPROJECTS\PRUEBA_V2\PRUEBA\DEBUG\PRUEBADLG.OBJ
